{
  "DatosEstudiante": [
    {
      "Apellido": "Lopez",
      "Nombre": "Cristian",
      "Semestre": "Tercero",
      "Paralelo": "A",
      "Dirrecion": "Manta",
      "Telefono": "0932543556",
      "Email": "clopez@gmail.com"

    
    },
    {
      "Apellido": "Loor",
      "Nombre": "Jose",
      "Semestre": "Cuarto",
      "Paralelo": "C",
      "Dirrecion": "Manta",
      "Telefono": "0997666552",
      "Email": "jloor@gmail.com"
    },
    {
      "Apellido": "Anchundia",
      "Nombre": "Kevin",
      "Semestre": "Primero",
      "Paralelo": "A",
      "Dirrecion": "Manta",
      "Telefono": "0982345463",
      "Email": "kanchundia@gmail.com"
    },
    {
      "Apellido": "Velez",
      "Nombre": "Sofia",
      "Semestre": "Séptimo",
      "Paralelo": "A",
      "Dirrecion": "Montecristi",
      "Telefono": "0907768345",
      "Email": "svelez@gmail.com"
    },
    {
      "Apellido": "Salazar",
      "Nombre": "Angie",
      "Semestre": "Sexto",
      "Paralelo": "B",
      "Dirrecion": "Manta",
      "Telefono": "0976807965",
      "Email": "asalazar@gmail.com"
    },
    {
      "Apellido": "Torres",
      "Nombre": "Jhon",
      "Semestre": "Tercero",
      "Paralelo": "B",
      "Dirrecion": "La Pila",
      "Telefono": "0902332546",
      "Email": "jtorres@gmail.com"
    },
    {
      "Apellido": "Tanjiro",
      "Nombre": "Kamado",
      "Semestre": "Sexto",
      "Paralelo": "A",
      "Dirrecion": "San Mateo",
      "Telefono": "09134254667",
      "Email": "tkamado@gmail.com"
    },
    {
      "Apellido": "Ackerman",
      "Nombre": "Levi",
      "Semestre": "Cuarto",
      "Paralelo": "C",
      "Dirrecion": "Eldia",
      "Telefono": "09812335353",
      "Email": "lackerman@gmail.com"
    },
    {
      "Apellido": "Jaeger",
      "Nombre": "Eren",
      "Semestre": "Primero",
      "Paralelo": "B",
      "Dirrecion": "Manta",
      "Telefono": "0924353467",
      "Email": "ejaerger@gmail.com"
    },
    {
      "Apellido": "Reiss",
      "Nombre": "Historia",
      "Semestre": "Quinto",
      "Paralelo": "A",
      "Dirrecion": "San Mateo",
      "Telefono": "09905635324",
      "Email": "hreiss@gmail.com"
    }
  ]
}
